…
  "2020-07-24", 20.1, 9.1,
  "2020-07-25", 19.7, 9.9,
  "2020-07-26", 19.3, 10,
  "2020-07-27", 18.3, 9.8,
  "2020-07-28", 16.7, 9.7,
  "2020-07-29", 16.4, 9.7,
  "2020-07-30", 16.5, 9.9,
  "2020-07-31", 16.4, 9.7,
  "2020-08-01", 16.2, 9,
  "2020-08-02", 16.1, 9,
  "2020-08-03", 16, 9.1
)
covid.data 

## # A tibble: 23 x 3
##    Date        Mask No_Mask
##    <chr>      <dbl>   <dbl>
##  1 2020-07-12  25.3     9.9
##  2 2020-07-13  22.6     9.7
##  3 2020-07-14  19.3     9.2
##  4 2020-07-15  20       9.8
##  5 2020-07-16  20.1     9.9
##  6 2020-07-17  19.8     9.8
##  7 2020-07-18  20.1     9.7
##  8 2020-07-19  20.2     9.2
##  9 2020-07-20  20.3     8.7
## 10 2020-07-21  21       8.5
## # ... with 13 more rows
…
